^D:\JUCE Projects\DynamicEQ2\Builds\VisualStudio2019\DynamicEQ2_VST3.vcxproj
D:\JUCE Projects\DynamicEQ2\Builds\VisualStudio2019\x64\Debug\VST3\DynamicEQ2.lib
D:\JUCE Projects\DynamicEQ2\Builds\VisualStudio2019\x64\Debug\VST3\DynamicEQ2.exp
^D:\JUCE Projects\DynamicEQ2\Builds\VisualStudio2019\DynamicEQ2_VST3.vcxproj
D:\JUCE Projects\DynamicEQ2\Builds\VisualStudio2019\x64\Debug\VST3\DynamicEQ2.lib
D:\JUCE Projects\DynamicEQ2\Builds\VisualStudio2019\x64\Debug\VST3\DynamicEQ2.exp
^D:\JUCE Projects\DynamicEQ2\Builds\VisualStudio2019\DynamicEQ2_VST3.vcxproj
D:\JUCE Projects\DynamicEQ2\Builds\VisualStudio2019\x64\Debug\VST3\DynamicEQ2.lib
D:\JUCE Projects\DynamicEQ2\Builds\VisualStudio2019\x64\Debug\VST3\DynamicEQ2.exp
^D:\JUCE Projects\DynamicEQ2\Builds\VisualStudio2019\DynamicEQ2_VST3.vcxproj
D:\JUCE Projects\DynamicEQ2\Builds\VisualStudio2019\x64\Debug\VST3\DynamicEQ2.lib
D:\JUCE Projects\DynamicEQ2\Builds\VisualStudio2019\x64\Debug\VST3\DynamicEQ2.exp
^D:\JUCE Projects\DynamicEQ2\Builds\VisualStudio2019\DynamicEQ2_VST3.vcxproj
D:\JUCE Projects\DynamicEQ2\Builds\VisualStudio2019\x64\Debug\VST3\DynamicEQ2.lib
D:\JUCE Projects\DynamicEQ2\Builds\VisualStudio2019\x64\Debug\VST3\DynamicEQ2.exp
^D:\JUCE Projects\DynamicEQ2\Builds\VisualStudio2019\DynamicEQ2_VST3.vcxproj
D:\JUCE Projects\DynamicEQ2\Builds\VisualStudio2019\x64\Debug\VST3\DynamicEQ2.lib
D:\JUCE Projects\DynamicEQ2\Builds\VisualStudio2019\x64\Debug\VST3\DynamicEQ2.exp
^D:\JUCE Projects\DynamicEQ2\Builds\VisualStudio2019\DynamicEQ2_VST3.vcxproj
D:\JUCE Projects\DynamicEQ2\Builds\VisualStudio2019\x64\Debug\VST3\DynamicEQ2.lib
D:\JUCE Projects\DynamicEQ2\Builds\VisualStudio2019\x64\Debug\VST3\DynamicEQ2.exp
^D:\JUCE Projects\DynamicEQ2\Builds\VisualStudio2019\DynamicEQ2_VST3.vcxproj
D:\JUCE Projects\DynamicEQ2\Builds\VisualStudio2019\x64\Debug\VST3\DynamicEQ2.lib
D:\JUCE Projects\DynamicEQ2\Builds\VisualStudio2019\x64\Debug\VST3\DynamicEQ2.exp
^D:\JUCE Projects\DynamicEQ2\Builds\VisualStudio2019\DynamicEQ2_VST3.vcxproj
D:\JUCE Projects\DynamicEQ2\Builds\VisualStudio2019\x64\Debug\VST3\DynamicEQ2.lib
D:\JUCE Projects\DynamicEQ2\Builds\VisualStudio2019\x64\Debug\VST3\DynamicEQ2.exp
^D:\JUCE Projects\DynamicEQ2\Builds\VisualStudio2019\DynamicEQ2_VST3.vcxproj
D:\JUCE Projects\DynamicEQ2\Builds\VisualStudio2019\x64\Debug\VST3\DynamicEQ2.lib
D:\JUCE Projects\DynamicEQ2\Builds\VisualStudio2019\x64\Debug\VST3\DynamicEQ2.exp
^D:\JUCE Projects\DynamicEQ2\Builds\VisualStudio2019\DynamicEQ2_VST3.vcxproj
D:\JUCE Projects\DynamicEQ2\Builds\VisualStudio2019\x64\Debug\VST3\DynamicEQ2.lib
D:\JUCE Projects\DynamicEQ2\Builds\VisualStudio2019\x64\Debug\VST3\DynamicEQ2.exp
^D:\JUCE Projects\DynamicEQ2\Builds\VisualStudio2019\DynamicEQ2_VST3.vcxproj
D:\JUCE Projects\DynamicEQ2\Builds\VisualStudio2019\x64\Debug\VST3\DynamicEQ2.lib
D:\JUCE Projects\DynamicEQ2\Builds\VisualStudio2019\x64\Debug\VST3\DynamicEQ2.exp
^D:\JUCE Projects\DynamicEQ2\Builds\VisualStudio2019\DynamicEQ2_VST3.vcxproj
D:\JUCE Projects\DynamicEQ2\Builds\VisualStudio2019\x64\Debug\VST3\DynamicEQ2.lib
D:\JUCE Projects\DynamicEQ2\Builds\VisualStudio2019\x64\Debug\VST3\DynamicEQ2.exp
^D:\JUCE Projects\DynamicEQ2\Builds\VisualStudio2019\DynamicEQ2_VST3.vcxproj
D:\JUCE Projects\DynamicEQ2\Builds\VisualStudio2019\x64\Debug\VST3\DynamicEQ2.lib
D:\JUCE Projects\DynamicEQ2\Builds\VisualStudio2019\x64\Debug\VST3\DynamicEQ2.exp
^D:\JUCE Projects\DynamicEQ2\Builds\VisualStudio2019\DynamicEQ2_VST3.vcxproj
D:\JUCE Projects\DynamicEQ2\Builds\VisualStudio2019\x64\Debug\VST3\DynamicEQ2.lib
D:\JUCE Projects\DynamicEQ2\Builds\VisualStudio2019\x64\Debug\VST3\DynamicEQ2.exp
^D:\JUCE Projects\DynamicEQ2\Builds\VisualStudio2019\DynamicEQ2_VST3.vcxproj
D:\JUCE Projects\DynamicEQ2\Builds\VisualStudio2019\x64\Debug\VST3\DynamicEQ2.lib
D:\JUCE Projects\DynamicEQ2\Builds\VisualStudio2019\x64\Debug\VST3\DynamicEQ2.exp
^D:\JUCE Projects\DynamicEQ2\Builds\VisualStudio2019\DynamicEQ2_VST3.vcxproj
D:\JUCE Projects\DynamicEQ2\Builds\VisualStudio2019\x64\Debug\VST3\DynamicEQ2.lib
D:\JUCE Projects\DynamicEQ2\Builds\VisualStudio2019\x64\Debug\VST3\DynamicEQ2.exp
^D:\JUCE Projects\DynamicEQ2\Builds\VisualStudio2019\DynamicEQ2_VST3.vcxproj
D:\JUCE Projects\DynamicEQ2\Builds\VisualStudio2019\x64\Debug\VST3\DynamicEQ2.lib
D:\JUCE Projects\DynamicEQ2\Builds\VisualStudio2019\x64\Debug\VST3\DynamicEQ2.exp
^D:\JUCE Projects\DynamicEQ2\Builds\VisualStudio2019\DynamicEQ2_VST3.vcxproj
D:\JUCE Projects\DynamicEQ2\Builds\VisualStudio2019\x64\Debug\VST3\DynamicEQ2.lib
D:\JUCE Projects\DynamicEQ2\Builds\VisualStudio2019\x64\Debug\VST3\DynamicEQ2.exp
^D:\JUCE Projects\DynamicEQ2\Builds\VisualStudio2019\DynamicEQ2_VST3.vcxproj
D:\JUCE Projects\DynamicEQ2\Builds\VisualStudio2019\x64\Debug\VST3\DynamicEQ2.lib
D:\JUCE Projects\DynamicEQ2\Builds\VisualStudio2019\x64\Debug\VST3\DynamicEQ2.exp
^D:\JUCE Projects\DynamicEQ2\Builds\VisualStudio2019\DynamicEQ2_VST3.vcxproj
D:\JUCE Projects\DynamicEQ2\Builds\VisualStudio2019\x64\Debug\VST3\DynamicEQ2.lib
D:\JUCE Projects\DynamicEQ2\Builds\VisualStudio2019\x64\Debug\VST3\DynamicEQ2.exp
^D:\JUCE Projects\DynamicEQ2\Builds\VisualStudio2019\DynamicEQ2_VST3.vcxproj
D:\JUCE Projects\DynamicEQ2\Builds\VisualStudio2019\x64\Debug\VST3\DynamicEQ2.lib
D:\JUCE Projects\DynamicEQ2\Builds\VisualStudio2019\x64\Debug\VST3\DynamicEQ2.exp
^D:\JUCE Projects\DynamicEQ2\Builds\VisualStudio2019\DynamicEQ2_VST3.vcxproj
D:\JUCE Projects\DynamicEQ2\Builds\VisualStudio2019\x64\Debug\VST3\DynamicEQ2.lib
D:\JUCE Projects\DynamicEQ2\Builds\VisualStudio2019\x64\Debug\VST3\DynamicEQ2.exp
^D:\JUCE Projects\DynamicEQ2\Builds\VisualStudio2019\DynamicEQ2_VST3.vcxproj
D:\JUCE Projects\DynamicEQ2\Builds\VisualStudio2019\x64\Debug\VST3\DynamicEQ2.lib
D:\JUCE Projects\DynamicEQ2\Builds\VisualStudio2019\x64\Debug\VST3\DynamicEQ2.exp
^D:\JUCE Projects\DynamicEQ2\Builds\VisualStudio2019\DynamicEQ2_VST3.vcxproj
D:\JUCE Projects\DynamicEQ2\Builds\VisualStudio2019\x64\Debug\VST3\DynamicEQ2.lib
D:\JUCE Projects\DynamicEQ2\Builds\VisualStudio2019\x64\Debug\VST3\DynamicEQ2.exp
^D:\JUCE Projects\DynamicEQ2\Builds\VisualStudio2019\DynamicEQ2_VST3.vcxproj
D:\JUCE Projects\DynamicEQ2\Builds\VisualStudio2019\x64\Debug\VST3\DynamicEQ2.lib
D:\JUCE Projects\DynamicEQ2\Builds\VisualStudio2019\x64\Debug\VST3\DynamicEQ2.exp
^D:\JUCE Projects\DynamicEQ2\Builds\VisualStudio2019\DynamicEQ2_VST3.vcxproj
D:\JUCE Projects\DynamicEQ2\Builds\VisualStudio2019\x64\Debug\VST3\DynamicEQ2.lib
D:\JUCE Projects\DynamicEQ2\Builds\VisualStudio2019\x64\Debug\VST3\DynamicEQ2.exp
^D:\JUCE Projects\DynamicEQ2\Builds\VisualStudio2019\DynamicEQ2_VST3.vcxproj
D:\JUCE Projects\DynamicEQ2\Builds\VisualStudio2019\x64\Debug\VST3\DynamicEQ2.lib
D:\JUCE Projects\DynamicEQ2\Builds\VisualStudio2019\x64\Debug\VST3\DynamicEQ2.exp
^D:\JUCE Projects\DynamicEQ2\Builds\VisualStudio2019\DynamicEQ2_VST3.vcxproj
D:\JUCE Projects\DynamicEQ2\Builds\VisualStudio2019\x64\Debug\VST3\DynamicEQ2.lib
D:\JUCE Projects\DynamicEQ2\Builds\VisualStudio2019\x64\Debug\VST3\DynamicEQ2.exp
^D:\JUCE Projects\DynamicEQ2\Builds\VisualStudio2019\DynamicEQ2_VST3.vcxproj
D:\JUCE Projects\DynamicEQ2\Builds\VisualStudio2019\x64\Debug\VST3\DynamicEQ2.lib
D:\JUCE Projects\DynamicEQ2\Builds\VisualStudio2019\x64\Debug\VST3\DynamicEQ2.exp
^D:\JUCE Projects\DynamicEQ2\Builds\VisualStudio2019\DynamicEQ2_VST3.vcxproj
D:\JUCE Projects\DynamicEQ2\Builds\VisualStudio2019\x64\Debug\VST3\DynamicEQ2.lib
D:\JUCE Projects\DynamicEQ2\Builds\VisualStudio2019\x64\Debug\VST3\DynamicEQ2.exp
^D:\JUCE Projects\DynamicEQ2\Builds\VisualStudio2019\DynamicEQ2_VST3.vcxproj
D:\JUCE Projects\DynamicEQ2\Builds\VisualStudio2019\x64\Debug\VST3\DynamicEQ2.lib
D:\JUCE Projects\DynamicEQ2\Builds\VisualStudio2019\x64\Debug\VST3\DynamicEQ2.exp
^D:\JUCE Projects\DynamicEQ2\Builds\VisualStudio2019\DynamicEQ2_VST3.vcxproj
D:\JUCE Projects\DynamicEQ2\Builds\VisualStudio2019\x64\Debug\VST3\DynamicEQ2.lib
D:\JUCE Projects\DynamicEQ2\Builds\VisualStudio2019\x64\Debug\VST3\DynamicEQ2.exp
^D:\JUCE Projects\DynamicEQ2\Builds\VisualStudio2019\DynamicEQ2_VST3.vcxproj
D:\JUCE Projects\DynamicEQ2\Builds\VisualStudio2019\x64\Debug\VST3\DynamicEQ2.lib
D:\JUCE Projects\DynamicEQ2\Builds\VisualStudio2019\x64\Debug\VST3\DynamicEQ2.exp
^D:\JUCE Projects\DynamicEQ2\Builds\VisualStudio2019\DynamicEQ2_VST3.vcxproj
D:\JUCE Projects\DynamicEQ2\Builds\VisualStudio2019\x64\Debug\VST3\DynamicEQ2.lib
D:\JUCE Projects\DynamicEQ2\Builds\VisualStudio2019\x64\Debug\VST3\DynamicEQ2.exp
^D:\JUCE Projects\DynamicEQ2\Builds\VisualStudio2019\DynamicEQ2_VST3.vcxproj
D:\JUCE Projects\DynamicEQ2\Builds\VisualStudio2019\x64\Debug\VST3\DynamicEQ2.lib
D:\JUCE Projects\DynamicEQ2\Builds\VisualStudio2019\x64\Debug\VST3\DynamicEQ2.exp
^D:\JUCE Projects\DynamicEQ2\Builds\VisualStudio2019\DynamicEQ2_VST3.vcxproj
D:\JUCE Projects\DynamicEQ2\Builds\VisualStudio2019\x64\Debug\VST3\DynamicEQ2.lib
D:\JUCE Projects\DynamicEQ2\Builds\VisualStudio2019\x64\Debug\VST3\DynamicEQ2.exp
