^D:\JUCE PROJECTS\DYNAMICEQ2\JUCELIBRARYCODE\INCLUDE_JUCE_AUDIO_PLUGIN_CLIENT_STANDALONE.CPP
D:\JUCE PROJECTS\DYNAMICEQ2\BUILDS\VISUALSTUDIO2019\X64\RELEASE\STANDALONE PLUGIN\VC142.PDB
D:\JUCE PROJECTS\DYNAMICEQ2\BUILDS\VISUALSTUDIO2019\X64\RELEASE\STANDALONE PLUGIN\INCLUDE_JUCE_AUDIO_PLUGIN_CLIENT_STANDALONE.OBJ
