^D:\JUCE PROJECTS\DYNAMICEQ2\JUCELIBRARYCODE\INCLUDE_JUCE_AUDIO_BASICS.CPP|D:\JUCE PROJECTS\DYNAMICEQ2\JUCELIBRARYCODE\INCLUDE_JUCE_AUDIO_DEVICES.CPP|D:\JUCE PROJECTS\DYNAMICEQ2\JUCELIBRARYCODE\INCLUDE_JUCE_AUDIO_FORMATS.CPP|D:\JUCE PROJECTS\DYNAMICEQ2\JUCELIBRARYCODE\INCLUDE_JUCE_AUDIO_PLUGIN_CLIENT_UTILS.CPP|D:\JUCE PROJECTS\DYNAMICEQ2\JUCELIBRARYCODE\INCLUDE_JUCE_AUDIO_PROCESSORS.CPP|D:\JUCE PROJECTS\DYNAMICEQ2\JUCELIBRARYCODE\INCLUDE_JUCE_AUDIO_UTILS.CPP|D:\JUCE PROJECTS\DYNAMICEQ2\JUCELIBRARYCODE\INCLUDE_JUCE_CORE.CPP|D:\JUCE PROJECTS\DYNAMICEQ2\JUCELIBRARYCODE\INCLUDE_JUCE_CRYPTOGRAPHY.CPP|D:\JUCE PROJECTS\DYNAMICEQ2\JUCELIBRARYCODE\INCLUDE_JUCE_DATA_STRUCTURES.CPP|D:\JUCE PROJECTS\DYNAMICEQ2\JUCELIBRARYCODE\INCLUDE_JUCE_DSP.CPP|D:\JUCE PROJECTS\DYNAMICEQ2\JUCELIBRARYCODE\INCLUDE_JUCE_EVENTS.CPP|D:\JUCE PROJECTS\DYNAMICEQ2\JUCELIBRARYCODE\INCLUDE_JUCE_GRAPHICS.CPP|D:\JUCE PROJECTS\DYNAMICEQ2\JUCELIBRARYCODE\INCLUDE_JUCE_GUI_BASICS.CPP|D:\JUCE PROJECTS\DYNAMICEQ2\JUCELIBRARYCODE\INCLUDE_JUCE_GUI_EXTRA.CPP|D:\JUCE PROJECTS\DYNAMICEQ2\JUCELIBRARYCODE\INCLUDE_JUCE_OPENGL.CPP|D:\JUCE PROJECTS\DYNAMICEQ2\SOURCE\FILTERSUPPLYIMPL.CPP|D:\JUCE PROJECTS\DYNAMICEQ2\SOURCE\IIRSTEREOWRAPPER.CPP|D:\JUCE PROJECTS\DYNAMICEQ2\SOURCE\MAINGUI_IMPL.CPP|D:\JUCE PROJECTS\DYNAMICEQ2\SOURCE\PLUGINEDITOR.CPP|D:\JUCE PROJECTS\DYNAMICEQ2\SOURCE\PLUGINPROCESSOR.CPP
D:\JUCE PROJECTS\DYNAMICEQ2\BUILDS\VISUALSTUDIO2019\X64\RELEASE\SHARED CODE\FILTERSUPPLYIMPL.OBJ
D:\JUCE PROJECTS\DYNAMICEQ2\BUILDS\VISUALSTUDIO2019\X64\RELEASE\SHARED CODE\INCLUDE_JUCE_AUDIO_DEVICES.OBJ
D:\JUCE PROJECTS\DYNAMICEQ2\BUILDS\VISUALSTUDIO2019\X64\RELEASE\SHARED CODE\INCLUDE_JUCE_AUDIO_UTILS.OBJ
D:\JUCE PROJECTS\DYNAMICEQ2\BUILDS\VISUALSTUDIO2019\X64\RELEASE\SHARED CODE\INCLUDE_JUCE_DSP.OBJ
D:\JUCE PROJECTS\DYNAMICEQ2\BUILDS\VISUALSTUDIO2019\X64\RELEASE\SHARED CODE\INCLUDE_JUCE_GUI_BASICS.OBJ
D:\JUCE PROJECTS\DYNAMICEQ2\BUILDS\VISUALSTUDIO2019\X64\RELEASE\SHARED CODE\IIRSTEREOWRAPPER.OBJ
D:\JUCE PROJECTS\DYNAMICEQ2\BUILDS\VISUALSTUDIO2019\X64\RELEASE\SHARED CODE\PLUGINEDITOR.OBJ
D:\JUCE PROJECTS\DYNAMICEQ2\BUILDS\VISUALSTUDIO2019\X64\RELEASE\SHARED CODE\INCLUDE_JUCE_AUDIO_PROCESSORS.OBJ
D:\JUCE PROJECTS\DYNAMICEQ2\BUILDS\VISUALSTUDIO2019\X64\RELEASE\SHARED CODE\INCLUDE_JUCE_EVENTS.OBJ
D:\JUCE PROJECTS\DYNAMICEQ2\BUILDS\VISUALSTUDIO2019\X64\RELEASE\SHARED CODE\INCLUDE_JUCE_OPENGL.OBJ
D:\JUCE PROJECTS\DYNAMICEQ2\BUILDS\VISUALSTUDIO2019\X64\RELEASE\SHARED CODE\PLUGINPROCESSOR.OBJ
D:\JUCE PROJECTS\DYNAMICEQ2\BUILDS\VISUALSTUDIO2019\X64\RELEASE\SHARED CODE\INCLUDE_JUCE_AUDIO_FORMATS.OBJ
D:\JUCE PROJECTS\DYNAMICEQ2\BUILDS\VISUALSTUDIO2019\X64\RELEASE\SHARED CODE\INCLUDE_JUCE_CORE.OBJ
D:\JUCE PROJECTS\DYNAMICEQ2\BUILDS\VISUALSTUDIO2019\X64\RELEASE\SHARED CODE\INCLUDE_JUCE_GUI_EXTRA.OBJ
D:\JUCE PROJECTS\DYNAMICEQ2\BUILDS\VISUALSTUDIO2019\X64\RELEASE\SHARED CODE\MAINGUI_IMPL.OBJ
D:\JUCE PROJECTS\DYNAMICEQ2\BUILDS\VISUALSTUDIO2019\X64\RELEASE\SHARED CODE\INCLUDE_JUCE_AUDIO_BASICS.OBJ
D:\JUCE PROJECTS\DYNAMICEQ2\BUILDS\VISUALSTUDIO2019\X64\RELEASE\SHARED CODE\INCLUDE_JUCE_AUDIO_PLUGIN_CLIENT_UTILS.OBJ
D:\JUCE PROJECTS\DYNAMICEQ2\BUILDS\VISUALSTUDIO2019\X64\RELEASE\SHARED CODE\INCLUDE_JUCE_CRYPTOGRAPHY.OBJ
D:\JUCE PROJECTS\DYNAMICEQ2\BUILDS\VISUALSTUDIO2019\X64\RELEASE\SHARED CODE\INCLUDE_JUCE_DATA_STRUCTURES.OBJ
D:\JUCE PROJECTS\DYNAMICEQ2\BUILDS\VISUALSTUDIO2019\X64\RELEASE\SHARED CODE\INCLUDE_JUCE_GRAPHICS.OBJ
^D:\JUCE PROJECTS\DYNAMICEQ2\SOURCE\IIRSTEREOWRAPPER.CPP
D:\JUCE PROJECTS\DYNAMICEQ2\BUILDS\VISUALSTUDIO2019\X64\RELEASE\SHARED CODE\DYNAMICEQ2_SHAREDCODE.PDB
^D:\JUCE PROJECTS\DYNAMICEQ2\JUCELIBRARYCODE\INCLUDE_JUCE_AUDIO_BASICS.CPP
D:\JUCE PROJECTS\DYNAMICEQ2\BUILDS\VISUALSTUDIO2019\X64\RELEASE\SHARED CODE\DYNAMICEQ2_SHAREDCODE.PDB
^D:\JUCE PROJECTS\DYNAMICEQ2\JUCELIBRARYCODE\INCLUDE_JUCE_AUDIO_DEVICES.CPP
D:\JUCE PROJECTS\DYNAMICEQ2\BUILDS\VISUALSTUDIO2019\X64\RELEASE\SHARED CODE\DYNAMICEQ2_SHAREDCODE.PDB
^D:\JUCE PROJECTS\DYNAMICEQ2\JUCELIBRARYCODE\INCLUDE_JUCE_AUDIO_FORMATS.CPP
D:\JUCE PROJECTS\DYNAMICEQ2\BUILDS\VISUALSTUDIO2019\X64\RELEASE\SHARED CODE\DYNAMICEQ2_SHAREDCODE.PDB
^D:\JUCE PROJECTS\DYNAMICEQ2\JUCELIBRARYCODE\INCLUDE_JUCE_AUDIO_PLUGIN_CLIENT_UTILS.CPP
D:\JUCE PROJECTS\DYNAMICEQ2\BUILDS\VISUALSTUDIO2019\X64\RELEASE\SHARED CODE\DYNAMICEQ2_SHAREDCODE.PDB
^D:\JUCE PROJECTS\DYNAMICEQ2\JUCELIBRARYCODE\INCLUDE_JUCE_AUDIO_PROCESSORS.CPP
D:\JUCE PROJECTS\DYNAMICEQ2\BUILDS\VISUALSTUDIO2019\X64\RELEASE\SHARED CODE\DYNAMICEQ2_SHAREDCODE.PDB
^D:\JUCE PROJECTS\DYNAMICEQ2\JUCELIBRARYCODE\INCLUDE_JUCE_AUDIO_UTILS.CPP
D:\JUCE PROJECTS\DYNAMICEQ2\BUILDS\VISUALSTUDIO2019\X64\RELEASE\SHARED CODE\DYNAMICEQ2_SHAREDCODE.PDB
^D:\JUCE PROJECTS\DYNAMICEQ2\JUCELIBRARYCODE\INCLUDE_JUCE_CORE.CPP
D:\JUCE PROJECTS\DYNAMICEQ2\BUILDS\VISUALSTUDIO2019\X64\RELEASE\SHARED CODE\DYNAMICEQ2_SHAREDCODE.PDB
^D:\JUCE PROJECTS\DYNAMICEQ2\JUCELIBRARYCODE\INCLUDE_JUCE_CRYPTOGRAPHY.CPP
D:\JUCE PROJECTS\DYNAMICEQ2\BUILDS\VISUALSTUDIO2019\X64\RELEASE\SHARED CODE\DYNAMICEQ2_SHAREDCODE.PDB
^D:\JUCE PROJECTS\DYNAMICEQ2\JUCELIBRARYCODE\INCLUDE_JUCE_DATA_STRUCTURES.CPP
D:\JUCE PROJECTS\DYNAMICEQ2\BUILDS\VISUALSTUDIO2019\X64\RELEASE\SHARED CODE\DYNAMICEQ2_SHAREDCODE.PDB
^D:\JUCE PROJECTS\DYNAMICEQ2\JUCELIBRARYCODE\INCLUDE_JUCE_DSP.CPP
D:\JUCE PROJECTS\DYNAMICEQ2\BUILDS\VISUALSTUDIO2019\X64\RELEASE\SHARED CODE\DYNAMICEQ2_SHAREDCODE.PDB
^D:\JUCE PROJECTS\DYNAMICEQ2\JUCELIBRARYCODE\INCLUDE_JUCE_EVENTS.CPP
D:\JUCE PROJECTS\DYNAMICEQ2\BUILDS\VISUALSTUDIO2019\X64\RELEASE\SHARED CODE\DYNAMICEQ2_SHAREDCODE.PDB
^D:\JUCE PROJECTS\DYNAMICEQ2\JUCELIBRARYCODE\INCLUDE_JUCE_GRAPHICS.CPP
D:\JUCE PROJECTS\DYNAMICEQ2\BUILDS\VISUALSTUDIO2019\X64\RELEASE\SHARED CODE\DYNAMICEQ2_SHAREDCODE.PDB
^D:\JUCE PROJECTS\DYNAMICEQ2\JUCELIBRARYCODE\INCLUDE_JUCE_GUI_BASICS.CPP
D:\JUCE PROJECTS\DYNAMICEQ2\BUILDS\VISUALSTUDIO2019\X64\RELEASE\SHARED CODE\DYNAMICEQ2_SHAREDCODE.PDB
^D:\JUCE PROJECTS\DYNAMICEQ2\JUCELIBRARYCODE\INCLUDE_JUCE_GUI_EXTRA.CPP
D:\JUCE PROJECTS\DYNAMICEQ2\BUILDS\VISUALSTUDIO2019\X64\RELEASE\SHARED CODE\DYNAMICEQ2_SHAREDCODE.PDB
^D:\JUCE PROJECTS\DYNAMICEQ2\JUCELIBRARYCODE\INCLUDE_JUCE_OPENGL.CPP
D:\JUCE PROJECTS\DYNAMICEQ2\BUILDS\VISUALSTUDIO2019\X64\RELEASE\SHARED CODE\DYNAMICEQ2_SHAREDCODE.PDB
^D:\JUCE PROJECTS\DYNAMICEQ2\SOURCE\MAINGUI_IMPL.CPP|D:\JUCE PROJECTS\DYNAMICEQ2\SOURCE\PLUGINEDITOR.CPP|D:\JUCE PROJECTS\DYNAMICEQ2\SOURCE\PLUGINPROCESSOR.CPP
D:\JUCE PROJECTS\DYNAMICEQ2\BUILDS\VISUALSTUDIO2019\X64\RELEASE\SHARED CODE\PLUGINPROCESSOR.OBJ
D:\JUCE PROJECTS\DYNAMICEQ2\BUILDS\VISUALSTUDIO2019\X64\RELEASE\SHARED CODE\PLUGINEDITOR.OBJ
D:\JUCE PROJECTS\DYNAMICEQ2\BUILDS\VISUALSTUDIO2019\X64\RELEASE\SHARED CODE\MAINGUI_IMPL.OBJ
^D:\JUCE PROJECTS\DYNAMICEQ2\SOURCE\PLUGINEDITOR.CPP|D:\JUCE PROJECTS\DYNAMICEQ2\SOURCE\PLUGINPROCESSOR.CPP
D:\JUCE PROJECTS\DYNAMICEQ2\BUILDS\VISUALSTUDIO2019\X64\RELEASE\SHARED CODE\PLUGINEDITOR.OBJ
D:\JUCE PROJECTS\DYNAMICEQ2\BUILDS\VISUALSTUDIO2019\X64\RELEASE\SHARED CODE\PLUGINPROCESSOR.OBJ
^D:\JUCE PROJECTS\DYNAMICEQ2\SOURCE\FILTERSUPPLYIMPL.CPP|D:\JUCE PROJECTS\DYNAMICEQ2\SOURCE\MAINGUI_IMPL.CPP|D:\JUCE PROJECTS\DYNAMICEQ2\SOURCE\PLUGINEDITOR.CPP|D:\JUCE PROJECTS\DYNAMICEQ2\SOURCE\PLUGINPROCESSOR.CPP
D:\JUCE PROJECTS\DYNAMICEQ2\BUILDS\VISUALSTUDIO2019\X64\RELEASE\SHARED CODE\MAINGUI_IMPL.OBJ
D:\JUCE PROJECTS\DYNAMICEQ2\BUILDS\VISUALSTUDIO2019\X64\RELEASE\SHARED CODE\PLUGINPROCESSOR.OBJ
D:\JUCE PROJECTS\DYNAMICEQ2\BUILDS\VISUALSTUDIO2019\X64\RELEASE\SHARED CODE\FILTERSUPPLYIMPL.OBJ
D:\JUCE PROJECTS\DYNAMICEQ2\BUILDS\VISUALSTUDIO2019\X64\RELEASE\SHARED CODE\PLUGINEDITOR.OBJ
^D:\JUCE PROJECTS\DYNAMICEQ2\SOURCE\FILTERSUPPLYIMPL.CPP
D:\JUCE PROJECTS\DYNAMICEQ2\BUILDS\VISUALSTUDIO2019\X64\RELEASE\SHARED CODE\DYNAMICEQ2_SHAREDCODE.PDB
^D:\JUCE PROJECTS\DYNAMICEQ2\SOURCE\MAINGUI_IMPL.CPP
D:\JUCE PROJECTS\DYNAMICEQ2\BUILDS\VISUALSTUDIO2019\X64\RELEASE\SHARED CODE\DYNAMICEQ2_SHAREDCODE.PDB
^D:\JUCE PROJECTS\DYNAMICEQ2\SOURCE\PLUGINEDITOR.CPP
D:\JUCE PROJECTS\DYNAMICEQ2\BUILDS\VISUALSTUDIO2019\X64\RELEASE\SHARED CODE\DYNAMICEQ2_SHAREDCODE.PDB
^D:\JUCE PROJECTS\DYNAMICEQ2\SOURCE\PLUGINPROCESSOR.CPP
D:\JUCE PROJECTS\DYNAMICEQ2\BUILDS\VISUALSTUDIO2019\X64\RELEASE\SHARED CODE\DYNAMICEQ2_SHAREDCODE.PDB
