^D:\JUCE PROJECTS\DYNAMICEQ2\BUILDS\VISUALSTUDIO2019\X64\RELEASE\SHARED CODE\FILTERSUPPLYIMPL.OBJ|D:\JUCE PROJECTS\DYNAMICEQ2\BUILDS\VISUALSTUDIO2019\X64\RELEASE\SHARED CODE\IIRSTEREOWRAPPER.OBJ|D:\JUCE PROJECTS\DYNAMICEQ2\BUILDS\VISUALSTUDIO2019\X64\RELEASE\SHARED CODE\INCLUDE_JUCE_AUDIO_BASICS.OBJ|D:\JUCE PROJECTS\DYNAMICEQ2\BUILDS\VISUALSTUDIO2019\X64\RELEASE\SHARED CODE\INCLUDE_JUCE_AUDIO_DEVICES.OBJ|D:\JUCE PROJECTS\DYNAMICEQ2\BUILDS\VISUALSTUDIO2019\X64\RELEASE\SHARED CODE\INCLUDE_JUCE_AUDIO_FORMATS.OBJ|D:\JUCE PROJECTS\DYNAMICEQ2\BUILDS\VISUALSTUDIO2019\X64\RELEASE\SHARED CODE\INCLUDE_JUCE_AUDIO_PLUGIN_CLIENT_UTILS.OBJ|D:\JUCE PROJECTS\DYNAMICEQ2\BUILDS\VISUALSTUDIO2019\X64\RELEASE\SHARED CODE\INCLUDE_JUCE_AUDIO_PROCESSORS.OBJ|D:\JUCE PROJECTS\DYNAMICEQ2\BUILDS\VISUALSTUDIO2019\X64\RELEASE\SHARED CODE\INCLUDE_JUCE_AUDIO_UTILS.OBJ|D:\JUCE PROJECTS\DYNAMICEQ2\BUILDS\VISUALSTUDIO2019\X64\RELEASE\SHARED CODE\INCLUDE_JUCE_CORE.OBJ|D:\JUCE PROJECTS\DYNAMICEQ2\BUILDS\VISUALSTUDIO2019\X64\RELEASE\SHARED CODE\INCLUDE_JUCE_CRYPTOGRAPHY.OBJ|D:\JUCE PROJECTS\DYNAMICEQ2\BUILDS\VISUALSTUDIO2019\X64\RELEASE\SHARED CODE\INCLUDE_JUCE_DATA_STRUCTURES.OBJ|D:\JUCE PROJECTS\DYNAMICEQ2\BUILDS\VISUALSTUDIO2019\X64\RELEASE\SHARED CODE\INCLUDE_JUCE_DSP.OBJ|D:\JUCE PROJECTS\DYNAMICEQ2\BUILDS\VISUALSTUDIO2019\X64\RELEASE\SHARED CODE\INCLUDE_JUCE_EVENTS.OBJ|D:\JUCE PROJECTS\DYNAMICEQ2\BUILDS\VISUALSTUDIO2019\X64\RELEASE\SHARED CODE\INCLUDE_JUCE_GRAPHICS.OBJ|D:\JUCE PROJECTS\DYNAMICEQ2\BUILDS\VISUALSTUDIO2019\X64\RELEASE\SHARED CODE\INCLUDE_JUCE_GUI_BASICS.OBJ|D:\JUCE PROJECTS\DYNAMICEQ2\BUILDS\VISUALSTUDIO2019\X64\RELEASE\SHARED CODE\INCLUDE_JUCE_GUI_EXTRA.OBJ|D:\JUCE PROJECTS\DYNAMICEQ2\BUILDS\VISUALSTUDIO2019\X64\RELEASE\SHARED CODE\INCLUDE_JUCE_OPENGL.OBJ|D:\JUCE PROJECTS\DYNAMICEQ2\BUILDS\VISUALSTUDIO2019\X64\RELEASE\SHARED CODE\MAINGUI_IMPL.OBJ|D:\JUCE PROJECTS\DYNAMICEQ2\BUILDS\VISUALSTUDIO2019\X64\RELEASE\SHARED CODE\PLUGINEDITOR.OBJ|D:\JUCE PROJECTS\DYNAMICEQ2\BUILDS\VISUALSTUDIO2019\X64\RELEASE\SHARED CODE\PLUGINPROCESSOR.OBJ
D:\JUCE PROJECTS\DYNAMICEQ2\BUILDS\VISUALSTUDIO2019\X64\RELEASE\SHARED CODE\FILTERSUPPLYIMPL.OBJ
C:\WINDOWS\SYSTEM32\TZRES.DLL
D:\JUCE PROJECTS\DYNAMICEQ2\BUILDS\VISUALSTUDIO2019\X64\RELEASE\SHARED CODE\IIRSTEREOWRAPPER.OBJ
D:\JUCE PROJECTS\DYNAMICEQ2\BUILDS\VISUALSTUDIO2019\X64\RELEASE\SHARED CODE\MAINGUI_IMPL.OBJ
D:\JUCE PROJECTS\DYNAMICEQ2\BUILDS\VISUALSTUDIO2019\X64\RELEASE\SHARED CODE\PLUGINPROCESSOR.OBJ
D:\JUCE PROJECTS\DYNAMICEQ2\BUILDS\VISUALSTUDIO2019\X64\RELEASE\SHARED CODE\PLUGINEDITOR.OBJ
D:\JUCE PROJECTS\DYNAMICEQ2\BUILDS\VISUALSTUDIO2019\X64\RELEASE\SHARED CODE\INCLUDE_JUCE_AUDIO_BASICS.OBJ
D:\JUCE PROJECTS\DYNAMICEQ2\BUILDS\VISUALSTUDIO2019\X64\RELEASE\SHARED CODE\INCLUDE_JUCE_AUDIO_DEVICES.OBJ
D:\JUCE PROJECTS\DYNAMICEQ2\BUILDS\VISUALSTUDIO2019\X64\RELEASE\SHARED CODE\INCLUDE_JUCE_AUDIO_FORMATS.OBJ
D:\JUCE PROJECTS\DYNAMICEQ2\BUILDS\VISUALSTUDIO2019\X64\RELEASE\SHARED CODE\INCLUDE_JUCE_AUDIO_PLUGIN_CLIENT_UTILS.OBJ
D:\JUCE PROJECTS\DYNAMICEQ2\BUILDS\VISUALSTUDIO2019\X64\RELEASE\SHARED CODE\INCLUDE_JUCE_AUDIO_PROCESSORS.OBJ
D:\JUCE PROJECTS\DYNAMICEQ2\BUILDS\VISUALSTUDIO2019\X64\RELEASE\SHARED CODE\INCLUDE_JUCE_AUDIO_UTILS.OBJ
D:\JUCE PROJECTS\DYNAMICEQ2\BUILDS\VISUALSTUDIO2019\X64\RELEASE\SHARED CODE\INCLUDE_JUCE_CORE.OBJ
D:\JUCE PROJECTS\DYNAMICEQ2\BUILDS\VISUALSTUDIO2019\X64\RELEASE\SHARED CODE\INCLUDE_JUCE_CRYPTOGRAPHY.OBJ
D:\JUCE PROJECTS\DYNAMICEQ2\BUILDS\VISUALSTUDIO2019\X64\RELEASE\SHARED CODE\INCLUDE_JUCE_DATA_STRUCTURES.OBJ
D:\JUCE PROJECTS\DYNAMICEQ2\BUILDS\VISUALSTUDIO2019\X64\RELEASE\SHARED CODE\INCLUDE_JUCE_DSP.OBJ
D:\JUCE PROJECTS\DYNAMICEQ2\BUILDS\VISUALSTUDIO2019\X64\RELEASE\SHARED CODE\INCLUDE_JUCE_EVENTS.OBJ
D:\JUCE PROJECTS\DYNAMICEQ2\BUILDS\VISUALSTUDIO2019\X64\RELEASE\SHARED CODE\INCLUDE_JUCE_GRAPHICS.OBJ
D:\JUCE PROJECTS\DYNAMICEQ2\BUILDS\VISUALSTUDIO2019\X64\RELEASE\SHARED CODE\INCLUDE_JUCE_GUI_BASICS.OBJ
D:\JUCE PROJECTS\DYNAMICEQ2\BUILDS\VISUALSTUDIO2019\X64\RELEASE\SHARED CODE\INCLUDE_JUCE_GUI_EXTRA.OBJ
D:\JUCE PROJECTS\DYNAMICEQ2\BUILDS\VISUALSTUDIO2019\X64\RELEASE\SHARED CODE\INCLUDE_JUCE_OPENGL.OBJ
C:\WINDOWS\GLOBALIZATION\SORTING\SORTDEFAULT.NLS
